<?xml version="1.0" encoding="utf-8"?>
<!-- Generator: Adobe Illustrator 23.1.1, SVG Export Plug-In . SVG Version: 6.00 Build 0)  -->
<svg version="1.1"
	 id="svg2" xmlns:cc="http://creativecommons.org/ns#" xmlns:dc="http://purl.org/dc/elements/1.1/" xmlns:inkscape="http://www.inkscape.org/namespaces/inkscape" xmlns:rdf="http://www.w3.org/1999/02/22-rdf-syntax-ns#" xmlns:sodipodi="http://sodipodi.sourceforge.net/DTD/sodipodi-0.dtd" xmlns:svg="http://www.w3.org/2000/svg"
	 xmlns="http://www.w3.org/2000/svg" xmlns:xlink="http://www.w3.org/1999/xlink" x="0px" y="0px" viewBox="0 0 20 220"
	 style="enable-background:new 0 0 20 220;" xml:space="preserve">
<style type="text/css">
	.st0{fill:#FFFFFF;}
	.st1{fill:#2CAFE8;}
	.st2{enable-background:new    ;}
	.st3{fill:#434E52;}
	.st4{fill:#E0ECEC;}
	.st5{fill:none;stroke:#434E52;stroke-width:3.5;stroke-linecap:round;stroke-linejoin:round;}
	.st6{fill:none;stroke:#2CAFE8;stroke-width:3.5;stroke-linecap:round;stroke-linejoin:round;}
	.st7{fill:none;stroke:#E0ECEC;stroke-width:3.5;stroke-linecap:round;stroke-linejoin:round;}
	.st8{fill:none;stroke:#E0ECEC;stroke-width:2.329;stroke-miterlimit:6.5143;}
</style>
<sodipodi:namedview  bordercolor="#666666" borderopacity="1" fit-margin-bottom="0" fit-margin-left="0" fit-margin-right="0" fit-margin-top="0" gridtolerance="10" guidetolerance="10" id="namedview41" inkscape:current-layer="svg2" inkscape:cx="-53.031306" inkscape:cy="90.68646" inkscape:object-nodes="true" inkscape:pageopacity="0" inkscape:pageshadow="2" inkscape:window-height="1056" inkscape:window-maximized="1" inkscape:window-width="1881" inkscape:window-x="39" inkscape:window-y="24" inkscape:zoom="1.9243043" objecttolerance="10" pagecolor="#ffffff" showgrid="false">
	</sodipodi:namedview>
<g id="path3854" sodipodi:cx="-264.51117" sodipodi:cy="138.36406" sodipodi:rx="19.227728" sodipodi:ry="19.227728" sodipodi:type="arc">
	<circle class="st0" cx="10" cy="10" r="9.9"/>
	<path class="st1" d="M10,0.2c5.4,0,9.8,4.4,9.8,9.8s-4.4,9.8-9.8,9.8S0.2,15.4,0.2,10S4.6,0.2,10,0.2 M10,0C4.5,0,0,4.5,0,10
		s4.5,10,10,10s10-4.5,10-10S15.5,0,10,0L10,0z"/>
</g>
<g class="st2">
	<path class="st1" d="M13.2,17.3H5.9c-0.1,0-0.2-0.1-0.2-0.2c0,0,0-0.2,0.1-0.5c0-0.1,0.1-0.2,0.3-0.2h3.3l1.3-9.2H7.3
		C7.2,7.2,7.1,7.1,7.1,7l0.1-0.5c0-0.1,0.1-0.2,0.3-0.2h4.1c0.2,0,0.3,0.1,0.3,0.2v0.2l-1.4,9.7h2.9c0.1,0,0.2,0.1,0.2,0.2
		c0,0,0,0.2-0.1,0.5C13.5,17.2,13.4,17.3,13.2,17.3z M12.3,3.8c0,0.2-0.1,0.3-0.3,0.3h-0.9c-0.2,0-0.2-0.1-0.2-0.2c0,0,0-0.4,0.1-1
		c0-0.2,0.1-0.3,0.3-0.3h0.9c0.2,0,0.2,0.1,0.2,0.2C12.5,2.8,12.4,3.2,12.3,3.8z"/>
</g>
<path id="path2993" sodipodi:cx="-264.51117" sodipodi:cy="138.36406" sodipodi:rx="19.227728" sodipodi:ry="19.227728" sodipodi:type="arc" class="st1" d="
	M20,50c0,5.5-4.5,10-10,10S0,55.5,0,50l0,0c0-5.5,4.5-10,10-10S20,44.5,20,50z"/>
<path id="rect3002" inkscape:connector-curvature="0" class="st0" d="M5.9,44.1c-0.4,0-0.9,0.2-1.2,0.5c-0.7,0.7-0.7,1.8,0,2.5
	L7.5,50l-2.9,2.9c-0.7,0.7-0.7,1.8,0,2.5s1.8,0.7,2.5,0l2.9-2.9l2.9,2.9c0.7,0.7,1.8,0.7,2.5,0c0.7-0.7,0.7-1.8,0-2.5L12.5,50
	l2.9-2.9c0.7-0.7,0.7-1.8,0-2.5c-0.7-0.7-1.8-0.7-2.5,0L10,47.5l-2.9-2.9C6.8,44.3,6.3,44.1,5.9,44.1z"/>
<path id="path3004" sodipodi:cx="-264.51117" sodipodi:cy="138.36406" sodipodi:rx="19.227728" sodipodi:ry="19.227728" sodipodi:type="arc" class="st3" d="
	M20,90c0,5.5-4.5,10-10,10S0,95.5,0,90l0,0c0-5.5,4.5-10,10-10S20,84.5,20,90z"/>
<path id="path3006" inkscape:connector-curvature="0" class="st4" d="M5.9,84.1c-0.4,0-0.9,0.2-1.2,0.5c-0.7,0.7-0.7,1.8,0,2.5
	L7.5,90l-2.9,2.9c-0.7,0.7-0.7,1.8,0,2.5s1.8,0.7,2.5,0l2.9-2.9l2.9,2.9c0.7,0.7,1.8,0.7,2.5,0c0.7-0.7,0.7-1.8,0-2.5L12.5,90
	l2.9-2.9c0.7-0.7,0.7-1.8,0-2.5c-0.7-0.7-1.8-0.7-2.5,0L10,87.5l-2.9-2.9C6.8,84.3,6.3,84.1,5.9,84.1z"/>
<path id="path2998" sodipodi:cx="-264.51117" sodipodi:cy="138.36406" sodipodi:rx="19.227728" sodipodi:ry="19.227728" sodipodi:type="arc" class="st4" d="
	M20,130c0,5.5-4.5,10-10,10s-10-4.5-10-10l0,0c0-5.5,4.5-10,10-10S20,124.5,20,130z"/>
<path id="path3002" inkscape:connector-curvature="0" sodipodi:nodetypes="ccc" class="st5" d="M4.9,128.9l2.2,5.5l8.1-8.9"/>
<path id="path3789" sodipodi:cx="-264.51117" sodipodi:cy="138.36406" sodipodi:rx="19.227728" sodipodi:ry="19.227728" sodipodi:type="arc" class="st0" d="
	M20,170c0,5.5-4.5,10-10,10s-10-4.5-10-10l0,0c0-5.5,4.5-10,10-10S20,164.5,20,170z"/>
<path id="path3791" inkscape:connector-curvature="0" sodipodi:nodetypes="ccc" class="st6" d="M4.9,168.9l2.2,5.5l8.1-8.9"/>
<path id="path2992" sodipodi:cx="-264.51117" sodipodi:cy="138.36406" sodipodi:rx="19.227728" sodipodi:ry="19.227728" sodipodi:type="arc" class="st3" d="
	M20,210c0,5.5-4.5,10-10,10s-10-4.5-10-10l0,0c0-5.5,4.5-10,10-10S20,204.5,20,210z"/>
<g id="g3766" transform="translate(0.52304213,-0.56695947)">
	<path id="path2994" inkscape:connector-curvature="0" sodipodi:nodetypes="cc" class="st7" d="M12.2,213.4l2.4,2.3"/>
	
		<path id="path2996" sodipodi:cx="7.0736241" sodipodi:cy="208.93835" sodipodi:rx="3.2152836" sodipodi:ry="3.2152836" sodipodi:type="arc" class="st8" d="
		M13.4,209.1c0,2.9-2.3,5.2-5.2,5.2S3,212,3,209.1s2.3-5.2,5.2-5.2S13.4,206.2,13.4,209.1z"/>
</g>
</svg>
