<?xml version="1.0" encoding="utf-8"?>
<!-- Generator: Adobe Illustrator 25.2.3, SVG Export Plug-In . SVG Version: 6.00 Build 0)  -->
<svg version="1.1"
	 id="svg2" xmlns:cc="http://creativecommons.org/ns#" xmlns:dc="http://purl.org/dc/elements/1.1/" xmlns:inkscape="http://www.inkscape.org/namespaces/inkscape" xmlns:rdf="http://www.w3.org/1999/02/22-rdf-syntax-ns#" xmlns:sodipodi="http://sodipodi.sourceforge.net/DTD/sodipodi-0.dtd" xmlns:svg="http://www.w3.org/2000/svg"
	 xmlns="http://www.w3.org/2000/svg" xmlns:xlink="http://www.w3.org/1999/xlink" x="0px" y="0px" viewBox="0 0 50 750"
	 style="enable-background:new 0 0 50 750;" xml:space="preserve">
<style type="text/css">
	.st0{fill:#FFFFFF;}
	.st1{fill:#040C14;}
	.st2{fill:#E0ECEC;}
	.st3{fill:#434E52;}
	.st4{fill:#2CAFE8;}
</style>
<sodipodi:namedview  bordercolor="#666666" borderopacity="1" fit-margin-bottom="0" fit-margin-left="0" fit-margin-right="0" fit-margin-top="0" gridtolerance="10" guidetolerance="10" id="namedview41" inkscape:current-layer="svg2" inkscape:cx="18.564251" inkscape:cy="585.84587" inkscape:object-nodes="true" inkscape:pageopacity="0" inkscape:pageshadow="2" inkscape:window-height="1056" inkscape:window-maximized="1" inkscape:window-width="1881" inkscape:window-x="39" inkscape:window-y="24" inkscape:zoom="0.96215217" objecttolerance="10" pagecolor="#ffffff" showgrid="false">
	</sodipodi:namedview>
<g id="g4197" transform="translate(0,-0.0122474)">
	<g id="g4079" transform="translate(2.8800179,0.01224445)">
		<path id="path3010" inkscape:connector-curvature="0" class="st0" d="M47.1,25c0,13.8-11.2,25-25,25s-25-11.2-25-25S8.3,0,22.1,0
			S47.1,11.2,47.1,25z"/>
		<path id="rect3028" inkscape:connector-curvature="0" class="st1" d="M22.1,9.8l-17,17h6.5v13.4h6.2V30.1h8.6v10.1h6.2V26.9h6.5
			L22.1,9.8z"/>
	</g>
	<g id="g4083" transform="translate(2.8800179,0.01224445)">
		<path id="path3789" inkscape:connector-curvature="0" class="st1" d="M-2.9,125c0,13.8,11.2,25,25,25s25-11.2,25-25
			s-11.2-25-25-25S-2.9,111.2-2.9,125L-2.9,125z"/>
		<path id="rect3832" inkscape:connector-curvature="0" sodipodi:nodetypes="cssssccssssscssccccccc" class="st0" d="M12.9,111.5
			c-1.3,0-2.4,1-2.4,2.2v22.6c0,1.2,1.1,2.2,2.4,2.2h18.5c1.3,0,2.4-0.5,2.4-1.7c0-0.5-0.6-0.9-1.1-0.9H15.3c-0.8,0-1.4-0.6-1.4-1.4
			v-0.3c0-0.7,0.6-1.3,1.4-1.3h17.5c0.5,0,0.9-0.4,0.9-0.9v-18.3c0-1.2-1-2.2-2.4-2.2h-7.6v11.3l-3.6-3.5l-3.5,3.5v-11.3L12.9,111.5
			L12.9,111.5z"/>
	</g>
	<g id="g4087" transform="translate(2.8800179,0.01224445)">
		<g id="g3801" transform="matrix(-1,0,0,1,727.39406,-268.76146)">
			<path id="path3803" inkscape:connector-curvature="0" class="st0" d="M730.3,493.8c0,13.8-11.2,25-25,25s-25-11.2-25-25l0,0
				c0-13.8,11.2-25,25-25C719.1,468.7,730.3,479.9,730.3,493.8C730.3,493.7,730.3,493.7,730.3,493.8z"/>
		</g>
		<path id="path3867" inkscape:connector-curvature="0" class="st1" d="M13.8,210c-0.3,0-0.6,0.1-0.9,0.1l4,4
			c0.6,0.6,0.6,1.5,0.1,2.1l-3.6,3.6c-0.6,0.6-1.5,0.6-2.1-0.1l-4-4c-0.5,2.3,0.2,4.8,2,6.6c2.1,2.1,5.2,2.6,7.8,1.6
			c0.1,0.2,0.3,0.5,0.5,0.7l1,1l1.1-1.1l-1.3-1.3c-0.3-0.3-0.3-1,0.2-1.4l2.8-2.8c0.6-2.4,0-5-1.9-6.8c-1.3-1.3-3.1-2.1-4.9-2.1
			C14.4,210,14.1,210,13.8,210L13.8,210z M32.4,210l-12.8,12.8l1.7,1.7L9.7,236.2l-0.6,0.2c-0.4,0.2-0.9,0.7-1.1,1.2l-0.8,1.7
			c-0.2,0.5,0,0.8,0.4,0.6l2-0.9c0.4-0.2,0.9-0.7,1.1-1.2l0.2-0.4l11.5-11.6l1.7,1.7l12.8-12.8L32.4,210L32.4,210z M27.6,226.2
			l-2.3,2.3c-0.4,0.4-1.1,0.5-1.4,0.2l-1.4-1.4l-1.1,1.1l10.7,10.7c0.9,0.9,2.3,1.1,3,0.3l1.6-1.6c0.7-0.7,0.6-2.1-0.3-3L27.6,226.2
			L27.6,226.2z"/>
	</g>
	<g id="g4092" transform="translate(2.8800179,0.01224445)">
		<g id="g3834" transform="matrix(-1,0,0,1,727.39406,-168.76126)">
			<path id="path3836" inkscape:connector-curvature="0" class="st2" d="M730.3,493.8c0,13.8-11.2,25-25,25s-25-11.2-25-25l0,0
				c0-13.8,11.2-25,25-25C719.1,468.7,730.3,479.9,730.3,493.8C730.3,493.7,730.3,493.7,730.3,493.8z"/>
		</g>
		<path id="rect3954" inkscape:connector-curvature="0" class="st3" d="M8.8,331.1l-2,8.5c-0.1,0.5,0.2,0.8,0.7,0.7l8.5-1.9
			L8.8,331.1L8.8,331.1z M9.6,330.2l7.3,7.3l15.9-15.9l-7.3-7.3C25.5,314.3,9.6,330.2,9.6,330.2z M26.7,313.2l7.3,7.3l3.2-3.2
			c0.3-0.3,0.4-0.9,0-1.2l-6.1-6.1c-0.3-0.3-0.9-0.3-1.2,0L26.7,313.2z"/>
	</g>
</g>
<g id="g4173" transform="translate(-100.00006,400.0008)">
	<g id="g4111" transform="translate(2.8800179,0.01224445)">
		<path id="path3973" inkscape:connector-curvature="0" class="st3" d="M147.1,25c0,13.8-11.2,25-25,25s-25-11.2-25-25
			s11.2-25,25-25S147.1,11.2,147.1,25L147.1,25z"/>
		<path id="path3985" inkscape:connector-curvature="0" class="st2" d="M122.1,9.8l-17,17h6.5v13.4h6.2V30.1h8.6v10.1h6.2V26.9h6.5
			C139.1,26.9,122.1,9.8,122.1,9.8z"/>
	</g>
	<g id="g4107" transform="translate(2.8800179,0.01224445)">
		<path id="path3975" inkscape:connector-curvature="0" class="st1" d="M97.1,125c0,13.8,11.2,25,25,25s25-11.2,25-25
			s-11.2-25-25-25S97.1,111.2,97.1,125L97.1,125z"/>
		<path id="path3987" inkscape:connector-curvature="0" sodipodi:nodetypes="cssssccssssscssccccccc" class="st0" d="M112.9,111.5
			c-1.3,0-2.4,1-2.4,2.2v22.6c0,1.2,1.1,2.2,2.4,2.2h18.5c1.3,0,2.4-0.5,2.4-1.7c0-0.5-0.6-0.9-1.1-0.9h-17.3
			c-0.8,0-1.4-0.6-1.4-1.4v-0.3c0-0.7,0.6-1.3,1.4-1.3h17.5c0.5,0,0.9-0.4,0.9-0.9v-18.3c0-1.2-1-2.2-2.4-2.2h-7.6v11.3l-3.6-3.5
			l-3.5,3.5v-11.3L112.9,111.5L112.9,111.5z"/>
	</g>
	<g id="g4102" transform="translate(2.8800179,0.01224445)">
		<g id="g3977" transform="matrix(-1,0,0,1,827.39411,-268.76146)">
			<path id="path3979" inkscape:connector-curvature="0" class="st4" d="M730.3,493.8c0,13.8-11.2,25-25,25s-25-11.2-25-25l0,0
				c0-13.8,11.2-25,25-25C719.1,468.7,730.3,479.9,730.3,493.8C730.3,493.7,730.3,493.7,730.3,493.8z"/>
		</g>
		<path id="path3989" inkscape:connector-curvature="0" class="st0" d="M113.8,210c-0.3,0-0.6,0.1-0.9,0.1l4,4
			c0.6,0.6,0.6,1.5,0.1,2.1l-3.6,3.6c-0.6,0.6-1.5,0.6-2.1-0.1l-4-4c-0.5,2.3,0.2,4.8,2,6.6c2.1,2.1,5.2,2.6,7.8,1.6
			c0.1,0.2,0.3,0.5,0.5,0.7l1,1l1.1-1.1l-1.3-1.3c-0.3-0.3-0.3-1,0.2-1.4l2.8-2.8c0.6-2.4,0-5-1.9-6.8c-1.3-1.3-3.1-2.1-4.9-2.1
			C114.4,210,114.1,210,113.8,210L113.8,210z M132.4,210l-12.8,12.8l1.7,1.7l-11.6,11.6l-0.6,0.2c-0.4,0.2-0.9,0.7-1.1,1.2l-0.8,1.7
			c-0.2,0.5,0,0.8,0.4,0.6l2-0.9c0.4-0.2,0.9-0.7,1.1-1.2l0.2-0.4l11.5-11.6l1.7,1.7l12.8-12.8L132.4,210L132.4,210z M127.6,226.2
			l-2.3,2.3c-0.4,0.4-1.1,0.5-1.4,0.2l-1.4-1.4l-1.1,1.1l10.7,10.7c0.9,0.9,2.3,1.1,3,0.3l1.6-1.6c0.7-0.7,0.6-2.1-0.3-3
			L127.6,226.2L127.6,226.2z"/>
	</g>
	<g id="g4097" transform="translate(2.8800179,0.01224445)">
		<g id="g3981" transform="matrix(-1,0,0,1,827.39411,-168.76126)">
			<path id="path3983" inkscape:connector-curvature="0" class="st3" d="M730.3,493.8c0,13.8-11.2,25-25,25s-25-11.2-25-25l0,0
				c0-13.8,11.2-25,25-25C719.1,468.7,730.3,479.9,730.3,493.8C730.3,493.7,730.3,493.7,730.3,493.8z"/>
		</g>
		<path id="path3991" inkscape:connector-curvature="0" class="st2" d="M108.8,331.1l-2,8.5c-0.1,0.5,0.2,0.8,0.7,0.7l8.5-1.9
			L108.8,331.1L108.8,331.1z M109.6,330.2l7.3,7.3l15.9-15.9l-7.3-7.3L109.6,330.2z M126.7,313.2l7.3,7.3l3.2-3.2
			c0.3-0.3,0.4-0.9,0-1.2l-6.1-6.1c-0.3-0.3-0.9-0.3-1.2,0L126.7,313.2L126.7,313.2z"/>
	</g>
</g>
</svg>
