<?xml version="1.0" encoding="utf-8"?>
<!-- Generator: Adobe Illustrator 25.2.3, SVG Export Plug-In . SVG Version: 6.00 Build 0)  -->
<svg version="1.1"
	 id="svg2" xmlns:cc="http://creativecommons.org/ns#" xmlns:dc="http://purl.org/dc/elements/1.1/" xmlns:inkscape="http://www.inkscape.org/namespaces/inkscape" xmlns:rdf="http://www.w3.org/1999/02/22-rdf-syntax-ns#" xmlns:sodipodi="http://sodipodi.sourceforge.net/DTD/sodipodi-0.dtd" xmlns:svg="http://www.w3.org/2000/svg"
	 xmlns="http://www.w3.org/2000/svg" xmlns:xlink="http://www.w3.org/1999/xlink" x="0px" y="0px" viewBox="0 0 300.4 60"
	 style="enable-background:new 0 0 300.4 60;" xml:space="preserve">
<style type="text/css">
	.st0{opacity:0.5;fill:#FFFFFF;enable-background:new    ;}
	.st1{fill:#FFFFFF;}
</style>
<sodipodi:namedview  bordercolor="#666666" borderopacity="1" fit-margin-bottom="0" fit-margin-left="0" fit-margin-right="0" fit-margin-top="0" gridtolerance="10" guidetolerance="10" id="namedview41" inkscape:current-layer="svg2" inkscape:cx="142.23479" inkscape:cy="23.217797" inkscape:object-nodes="true" inkscape:pageopacity="0" inkscape:pageshadow="2" inkscape:window-height="1056" inkscape:window-maximized="1" inkscape:window-width="1881" inkscape:window-x="39" inkscape:window-y="24" inkscape:zoom="0.96215217" objecttolerance="10" pagecolor="#ffffff" showgrid="false">
	</sodipodi:namedview>
<g id="g3842" transform="translate(565.55231,-118.91818)">
	<path id="rect3022" class="st0" d="M-563.1,118.9h295c1.4,0,2.5,4.5,2.5,10l0,0c0,5.5-1.1,10-2.5,10h-295c-1.4,0-2.5-4.5-2.5-10
		l0,0C-565.6,123.4-564.4,118.9-563.1,118.9z"/>
	<path id="rect3800" inkscape:connector-curvature="0" sodipodi:nodetypes="cccc" class="st1" d="M-415.6,123.1l37.8,11.6h-75.6
		L-415.6,123.1z"/>
</g>
<g id="g3846" transform="translate(565.91977,-120.80853)">
	<path id="rect3836" class="st0" d="M-563.1,160.8h295c1.4,0,2.5,4.5,2.5,10l0,0c0,5.5-1.1,10-2.5,10h-295c-1.4,0-2.5-4.5-2.5-10
		l0,0C-565.6,165.3-564.4,160.8-563.1,160.8z"/>
	<path id="path3838" inkscape:connector-curvature="0" sodipodi:nodetypes="cccc" class="st1" d="M-415.6,176.6l37.8-11.6h-75.6
		L-415.6,176.6z"/>
</g>
</svg>
