<?xml version="1.0" encoding="utf-8"?>
<!-- Generator: Adobe Illustrator 25.2.3, SVG Export Plug-In . SVG Version: 6.00 Build 0)  -->
<svg version="1.1"
	 id="svg2" inkscape:version="0.92.4 (5da689c313, 2019-01-14)" sodipodi:docname="drag.svg" xmlns:cc="http://creativecommons.org/ns#" xmlns:dc="http://purl.org/dc/elements/1.1/" xmlns:inkscape="http://www.inkscape.org/namespaces/inkscape" xmlns:rdf="http://www.w3.org/1999/02/22-rdf-syntax-ns#" xmlns:sodipodi="http://sodipodi.sourceforge.net/DTD/sodipodi-0.dtd" xmlns:svg="http://www.w3.org/2000/svg"
	 xmlns="http://www.w3.org/2000/svg" xmlns:xlink="http://www.w3.org/1999/xlink" x="0px" y="0px" viewBox="0 0 19 19"
	 style="enable-background:new 0 0 19 19;" xml:space="preserve">
<style type="text/css">
	.st0{fill:#010D25;}
</style>
<sodipodi:namedview  bordercolor="#666666" borderopacity="1" fit-margin-bottom="0" fit-margin-left="0" fit-margin-right="0" fit-margin-top="0" gridtolerance="10" guidetolerance="10" id="namedview41" inkscape:current-layer="svg2" inkscape:cx="-434.99087" inkscape:cy="205.49879" inkscape:object-nodes="true" inkscape:pageopacity="0" inkscape:pageshadow="2" inkscape:window-height="1017" inkscape:window-maximized="1" inkscape:window-width="1920" inkscape:window-x="3832" inkscape:window-y="515" inkscape:zoom="0.95358235" objecttolerance="10" pagecolor="#ffffff" showgrid="false">
	</sodipodi:namedview>
<g id="nextPage" transform="matrix(-0.38,0,0,0.38,277.50412,-178.12983)">
	<path id="path3789" inkscape:connector-curvature="0" class="st0" d="M706,468.8c13.5,0.4,24.3,11.5,24.3,25c0,13.8-11.2,25-25,25
		s-25-11.2-25-25c0-13.8,11.2-25,25-25C705.5,468.8,705.8,468.8,706,468.8z M710.4,480.8L700.2,491l-2.7,2.7l2.7,2.7l10.2,10.2
		l2.7-2.7l-10.2-10.2l10.2-10.2L710.4,480.8z"/>
</g>
</svg>
