<?xml version="1.0" encoding="utf-8"?>
<!-- Generator: Adobe Illustrator 23.1.1, SVG Export Plug-In . SVG Version: 6.00 Build 0)  -->
<svg version="1.1"
	 id="svg2" xmlns:cc="http://creativecommons.org/ns#" xmlns:dc="http://purl.org/dc/elements/1.1/" xmlns:inkscape="http://www.inkscape.org/namespaces/inkscape" xmlns:rdf="http://www.w3.org/1999/02/22-rdf-syntax-ns#" xmlns:sodipodi="http://sodipodi.sourceforge.net/DTD/sodipodi-0.dtd" xmlns:svg="http://www.w3.org/2000/svg"
	 xmlns="http://www.w3.org/2000/svg" xmlns:xlink="http://www.w3.org/1999/xlink" x="0px" y="0px" viewBox="0 0 20 20"
	 style="enable-background:new 0 0 20 20;" xml:space="preserve">
<style type="text/css">
	.st0{fill:#2CAFE8;}
	.st1{fill:#FFFFFF;}
</style>
<sodipodi:namedview  bordercolor="#666666" borderopacity="1" fit-margin-bottom="0" fit-margin-left="0" fit-margin-right="0" fit-margin-top="0" gridtolerance="10" guidetolerance="10" id="namedview41" inkscape:current-layer="svg2" inkscape:cx="-19.227242" inkscape:cy="94.865731" inkscape:object-nodes="true" inkscape:pageopacity="0" inkscape:pageshadow="2" inkscape:window-height="1056" inkscape:window-maximized="1" inkscape:window-width="1881" inkscape:window-x="39" inkscape:window-y="24" inkscape:zoom="1.3606886" objecttolerance="10" pagecolor="#ffffff" showgrid="false">
	</sodipodi:namedview>
<g id="path3948" inkscape:connector-curvature="0" sodipodi:nodetypes="ccccccccccccc">
	<path class="st0" d="M13.7,19.6c-0.6,0-1.1-0.2-1.4-0.6c-0.4-0.4-0.5-1-0.5-1.8c0.1-0.5,0.1-0.8-0.1-1.1c-0.1-0.1-0.3-0.3-0.6-0.3
		c-0.6,0-1.6,0.6-2.7,1.2c-0.6,0.4-1.3,0.8-1.7,1c-0.1-0.5-0.1-1.2-0.1-1.9c0-1.1,0.1-2.2-0.6-2.9c-0.3-0.3-0.8-0.5-1.4-0.5
		c-0.3,0-0.5,0-0.8,0.1H3.7l-0.1,0.1c-1,1.3-1.7,1.5-2.1,1.5s-0.7-0.3-0.8-0.5c-0.3-0.6-0.3-1.4,0-2c0.3-0.5,0.8-1,2.1-1h0.1
		c0.5,0.2,0.8,0.3,1.1,0.3l0,0c0.4,0,0.6-0.2,0.7-0.3c0.4-0.6-0.1-1.7-1-3.5c-0.4-0.6-0.8-1.4-1-2c0.1,0,0.3,0,0.4,0
		c3.1,0,3.8-0.6,4-1c0.1-0.2,0.2-0.6,0-1l0-0.1H7C6.3,3,5.5,2.5,5.7,1.7c0.2-0.7,1-1.3,1.7-1.3c0.2,0,0.4,0.1,0.5,0.2
		c0.1,0.2,0.3,0.7,0,1.8v0.1L8,2.6C8,3,8.3,3.3,9,3.3c1.1,0,3.1-0.9,5.2-1.9c0,0.3,0.1,0.7,0.1,1c0.1,1.5,0.3,3.1,1.6,3.1
		c0.2,0,0.5-0.1,0.7-0.2h0.1l0.1-0.1c0.5-0.7,1-1.1,1.5-1.1c0.7,0,1.3,0.9,1.3,1.7c0,0.4-0.1,1.1-1.1,1.1l0,0c-0.2,0-0.4,0-0.7-0.1
		c-0.2-0.1-0.4-0.1-0.5-0.1c-0.4,0-0.6,0.2-0.7,0.3c-0.5,0.7-0.1,2.2,0.7,4.5c0.3,0.9,0.6,1.8,0.7,2.5c-0.5,0.2-1.2,0.2-1.9,0.3
		c-1.4,0.2-2.8,0.4-3.2,1.2c-0.2,0.3-0.2,0.7,0,1.2v0.1l0.1,0.1c2,1.1,1.9,1.9,1.9,2.1C14.8,19.4,14.3,19.6,13.7,19.6z"/>
	<path class="st1" d="M7.4,0.7c0.1,0,0.2,0,0.2,0.1c0,0,0.3,0.4-0.1,1.5L7.4,2.6l0.1,0.2C7.7,3.1,8,3.6,9,3.6c1.1,0,2.9-0.8,4.9-1.7
		c0,0.2,0,0.3,0,0.5c0.1,1.5,0.3,3.4,2,3.4c0.3,0,0.6-0.1,0.9-0.2l0.2,0l0.1-0.2c0.4-0.6,0.9-0.9,1.2-0.9c0.5,0,0.9,0.7,0.9,1.3
		c0,0.1,0,0.4-0.2,0.5c-0.1,0.1-0.3,0.2-0.6,0.2c-0.2,0-0.3,0-0.5-0.1s-0.4-0.1-0.6-0.1c-0.4,0-0.8,0.2-1,0.5
		c-0.6,0.8-0.2,2.4,0.6,4.9c0.2,0.7,0.5,1.5,0.6,2.1c-0.4,0.1-1,0.2-1.5,0.2c-1.5,0.2-2.9,0.4-3.5,1.3c-0.2,0.3-0.3,0.8-0.1,1.5
		l0.1,0.2l0.2,0.1c1.5,0.9,1.8,1.5,1.7,1.7c0,0.2-0.4,0.4-0.9,0.4s-0.9-0.2-1.1-0.5c-0.3-0.3-0.4-0.8-0.4-1.4
		c0.1-0.3,0.2-0.9-0.2-1.4c-0.2-0.3-0.5-0.4-0.9-0.4c-0.7,0-1.5,0.5-2.9,1.3c-0.4,0.3-0.9,0.5-1.3,0.7c0-0.4,0-0.9,0-1.3
		C6.7,15,6.8,13.8,6,13c-0.4-0.4-1-0.6-1.7-0.6c-0.3,0-0.6,0-0.9,0.1l-0.3,0.1l-0.2,0.2c-1,1.3-1.6,1.4-1.8,1.4
		c-0.4,0-0.7-0.6-0.7-1.1c0-0.8,0.5-1.7,2-1.7l0,0c0.5,0.2,0.9,0.3,1.2,0.3c0.6,0,0.9-0.3,1-0.5c0.5-0.8,0-1.9-1-3.9
		c0.1-0.4-0.2-1-0.4-1.5c3.2,0,3.9-0.6,4.2-1.2c0.1-0.2,0.3-0.7,0-1.4L7.3,3L7.1,2.9C6.6,2.7,6,2.3,6.1,1.8S6.9,0.7,7.4,0.7 M7.4,0
		C5.9,0,3.9,2.3,6.8,3.6C7.5,4.9,5,5.1,3.1,5.1c-0.3,0-0.6,0-0.9,0c0.2,1.6,3.2,6,1.7,6c-0.2,0-0.6-0.1-1-0.3c-0.1,0-0.1,0-0.2,0
		c-3.5,0-3.2,4.3-1.3,4.3c0.6,0,1.5-0.5,2.4-1.7c0.3-0.1,0.6-0.1,0.8-0.1c2.7,0,1,3.7,1.9,5.4c1.2-0.3,3.7-2.3,4.6-2.3
		c0.3,0,0.5,0.3,0.4,0.9c-0.2,2,1.1,2.8,2.2,2.8c1.6,0,2.9-1.5-0.4-3.4c-0.8-2,3.4-1.6,5.2-2.3C18,11.8,15.7,7,17.3,7
		c0.1,0,0.3,0,0.4,0.1c0.3,0.1,0.5,0.1,0.7,0.1c2.4,0,1.6-3.5-0.2-3.5C17.7,3.7,17,4,16.4,5c-0.2,0.1-0.4,0.1-0.6,0.1
		c-1.4,0-1.1-2.8-1.5-4.3c-2,1-4.2,2.1-5.3,2.1c-0.4,0-0.6-0.1-0.7-0.4C8.7,0.7,8.1,0,7.4,0L7.4,0z"/>
</g>
</svg>
