<?xml version="1.0" encoding="utf-8"?>
<!-- Generator: Adobe Illustrator 25.2.3, SVG Export Plug-In . SVG Version: 6.00 Build 0)  -->
<svg version="1.1"
	 id="svg2" xmlns:cc="http://creativecommons.org/ns#" xmlns:dc="http://purl.org/dc/elements/1.1/" xmlns:inkscape="http://www.inkscape.org/namespaces/inkscape" xmlns:rdf="http://www.w3.org/1999/02/22-rdf-syntax-ns#" xmlns:sodipodi="http://sodipodi.sourceforge.net/DTD/sodipodi-0.dtd" xmlns:svg="http://www.w3.org/2000/svg"
	 xmlns="http://www.w3.org/2000/svg" xmlns:xlink="http://www.w3.org/1999/xlink" x="0px" y="0px" viewBox="0 0 50 350"
	 style="enable-background:new 0 0 50 350;" xml:space="preserve">
<style type="text/css">
	.st0{fill:#FFFFFF;}
	.st1{fill:#010D25;}
</style>
<sodipodi:namedview  bordercolor="#666666" borderopacity="1" fit-margin-bottom="0" fit-margin-left="0" fit-margin-right="0" fit-margin-top="0" gridtolerance="10" guidetolerance="10" id="namedview41" inkscape:current-layer="svg2" inkscape:cx="-157.36625" inkscape:cy="179.44" inkscape:object-nodes="true" inkscape:pageopacity="0" inkscape:pageshadow="2" inkscape:window-height="1056" inkscape:window-maximized="1" inkscape:window-width="1881" inkscape:window-x="39" inkscape:window-y="24" inkscape:zoom="0.95358234" objecttolerance="10" pagecolor="#ffffff" showgrid="false">
	</sodipodi:namedview>
<g id="g3841" transform="translate(1.0611667e-5,-3.1694294e-6)">
	<g id="previousPage" transform="translate(-680.27395,-411.68824)">
		<path id="path3010" inkscape:connector-curvature="0" class="st0" d="M730.3,436.7c0,13.8-11.2,25-25,25s-25-11.2-25-25l0,0
			c0-13.8,11.2-25,25-25S730.3,422.8,730.3,436.7L730.3,436.7z"/>
		<path id="rect3012" inkscape:connector-curvature="0" class="st1" d="M710.4,423.8L700.2,434l-2.7,2.7l2.7,2.7l10.2,10.2l2.7-2.7
			l-10.2-10.2l10.2-10.2L710.4,423.8z"/>
	</g>
	<g id="nextPage" transform="matrix(-1,0,0,1,730.274,-368.76166)">
		<path id="path3789" inkscape:connector-curvature="0" class="st0" d="M730.3,493.8c0,13.8-11.2,25-25,25s-25-11.2-25-25l0,0
			c0-13.8,11.2-25,25-25C719.1,468.7,730.3,479.9,730.3,493.8C730.3,493.7,730.3,493.7,730.3,493.8z"/>
		<path id="path3791" inkscape:connector-curvature="0" class="st1" d="M710.4,480.8L700.2,491l-2.7,2.7l2.7,2.7l10.2,10.2l2.7-2.7
			l-10.2-10.2l10.2-10.2L710.4,480.8L710.4,480.8z"/>
	</g>
	<g id="fullScreen" transform="translate(-767.49984,-252.75131)">
		<g id="g3801" transform="matrix(-1,0,0,1,1497.7739,-16.010149)">
			<path id="path3803" inkscape:connector-curvature="0" class="st0" d="M730.3,493.8c0,13.8-11.2,25-25,25s-25-11.2-25-25l0,0
				c0-13.8,11.2-25,25-25C719.1,468.7,730.3,479.9,730.3,493.8C730.3,493.7,730.3,493.7,730.3,493.8z"/>
		</g>
		<path id="rect3807" inkscape:connector-curvature="0" class="st1" d="M777.5,462.8v4v8l4-4l4,4l4-4l-4-4l4-4h-8H777.5z"/>
		<path id="path3816" inkscape:connector-curvature="0" class="st1" d="M807.5,462.8v4v8l-4-4l-4,4l-4-4l4-4l-4-4h8H807.5z"/>
		<path id="path3820" inkscape:connector-curvature="0" class="st1" d="M777.5,492.8v-4v-8l4,4l4-4l4,4l-4,4l4,4h-8H777.5z"/>
		<path id="path3822" inkscape:connector-curvature="0" class="st1" d="M807.5,492.8v-4v-8l-4,4l-4-4l-4,4l4,4l-4,4h8H807.5z"/>
	</g>
	<g id="restore" transform="translate(-676.73844,-311.19022)">
		<g id="g3834" transform="matrix(-1,0,0,1,1407.0125,142.42896)">
			<path id="path3836" inkscape:connector-curvature="0" class="st0" d="M730.3,493.8c0,13.8-11.2,25-25,25s-25-11.2-25-25l0,0
				c0-13.8,11.2-25,25-25C719.1,468.7,730.3,479.9,730.3,493.8C730.3,493.7,730.3,493.7,730.3,493.8z"/>
		</g>
		<path id="path3838" inkscape:connector-curvature="0" class="st1" d="M698.7,633.2v-4v-8l-4,4l-4-4l-4,4l4,4l-4,4h8H698.7z"/>
		<path id="path3840" inkscape:connector-curvature="0" class="st1" d="M704.7,633.2v-4v-8l4,4l4-4l4,4l-4,4l4,4h-8H704.7z"/>
		<path id="path3842" inkscape:connector-curvature="0" class="st1" d="M698.7,639.2v4v8l-4-4l-4,4l-4-4l4-4l-4-4h8H698.7z"/>
		<path id="path3844" inkscape:connector-curvature="0" class="st1" d="M704.7,639.2v4v8l4-4l4,4l4-4l-4-4l4-4h-8H704.7z"/>
	</g>
</g>
</svg>
