<?xml version="1.0" encoding="utf-8"?>
<!-- Generator: Adobe Illustrator 23.1.1, SVG Export Plug-In . SVG Version: 6.00 Build 0)  -->
<svg version="1.1"
	 id="svg2" inkscape:version="0.91 r13725" sodipodi:docname="blocks.svg" xmlns:cc="http://creativecommons.org/ns#" xmlns:dc="http://purl.org/dc/elements/1.1/" xmlns:inkscape="http://www.inkscape.org/namespaces/inkscape" xmlns:rdf="http://www.w3.org/1999/02/22-rdf-syntax-ns#" xmlns:sodipodi="http://sodipodi.sourceforge.net/DTD/sodipodi-0.dtd" xmlns:svg="http://www.w3.org/2000/svg"
	 xmlns="http://www.w3.org/2000/svg" xmlns:xlink="http://www.w3.org/1999/xlink" x="0px" y="0px" viewBox="0 0 35 420"
	 style="enable-background:new 0 0 35 420;" xml:space="preserve">
<style type="text/css">
	.st0{fill:#EE1C25;}
	.st1{fill:#FFFFFF;}
	.st2{fill:#434E52;}
	.st3{fill:#EAA459;}
	.st4{fill:#434E52;stroke:#434E52;stroke-miterlimit:10;}
	.st5{fill:none;stroke:#434E52;stroke-width:0.9621;stroke-miterlimit:2.6131;}
	.st6{fill:none;stroke:#434E52;stroke-width:0.9618;stroke-miterlimit:2.6131;}
	.st7{fill:none;stroke:#434E52;stroke-width:1.0003;stroke-miterlimit:2.6131;}
	.st8{fill:#F9C300;}
	.st9{fill:none;}
</style>
<sodipodi:namedview  bordercolor="#666666" borderopacity="1" gridtolerance="10" guidetolerance="10" id="namedview541" inkscape:current-layer="Fondamental" inkscape:cx="-151.43062" inkscape:cy="166.74805" inkscape:pageopacity="0" inkscape:pageshadow="2" inkscape:window-height="1017" inkscape:window-maximized="1" inkscape:window-width="1920" inkscape:window-x="1912" inkscape:window-y="-8" inkscape:zoom="1.5893067" objecttolerance="10" pagecolor="#ffffff" showgrid="false">
	</sodipodi:namedview>
<g id="content">
	<g id="blocks">
		<g id="Attention">
			<polygon id="polygon383" class="st0" points="0.1,31 34.9,31.3 16.9,0.5 			"/>
			<path id="path385" class="st1" d="M18.5,21.7c0,0.6-0.4,1.2-1,1.2h-1c-0.5,0-1-0.5-1-1.2l-1-12.5c0-0.6,0.4-1.1,1-1.1h3
				c0.5,0,1,0.5,1,1.1L18.5,21.7z"/>
			<ellipse id="ellipse387" class="st1" cx="16.9" cy="26.8" rx="1.9" ry="2.2"/>
		</g>
		<path id="Méthode" class="st2" d="M3.3,201.7c0,2.3,1.9,4.2,4.2,4.2c1.2,0,2.2-0.4,3-1.2l7.6-7.6l2,2c-0.3,1,0,2.1,0.8,2.9l3,3
			c1.2,1.2,3.1,1.2,4.3,0c1.2-1.2,1.2-3.1,0-4.3l-3-3c-0.8-0.8-1.9-1.1-2.9-0.8l-2-2l1.3-1.3c2.8,0.7,5.9,0,8.1-2.2
			c1.5-1.5,2.3-3.3,2.4-5.3v-0.1c0-0.7-0.5-1.2-1.2-1.2c-0.3,0-0.6,0.1-0.9,0.3l-0.4,0.3l-1.2,1.2c-0.8,0.7-1.8,1.2-3,1.2
			c-1.2,0-2.2-0.5-2.9-1.3c-0.7-0.8-1.3-1.8-1.3-3c0-1.2,0.4-2.3,1.2-3l1.2-1.2l0.3-0.4c0.2-0.2,0.3-0.5,0.3-0.9
			c0-0.7-0.5-1.2-1.2-1.2h-0.1c-1.9,0.1-3.8,0.9-5.3,2.4c-2.1,2.2-2.9,5.3-2.2,8.1l-1.3,1.3l-5.5-5.5V182l-3.6-1.8L3.3,182l1.8,3.6
			h1.5l5.5,5.5l-7.6,7.6C3.7,199.5,3.3,200.6,3.3,201.7z M6.3,201.4c0-0.8,0.7-1.5,1.5-1.5s1.5,0.7,1.5,1.5s-0.7,1.5-1.5,1.5
			C6.9,202.9,6.3,202.2,6.3,201.4z"/>
		<g id="Définition">
			<path id="path391" class="st2" d="M12.7,36.3C6.8,36.3,2.1,41,2.1,46.9s4.7,10.6,10.6,10.6s10.6-4.7,10.6-10.6
				C23.3,41,18.6,36.3,12.7,36.3z M10.4,48.4c-2.1,0-3.8-1.7-3.8-3.8c0-2.1,1.7-3.8,3.8-3.8s3.8,1.7,3.8,3.8
				C14.2,46.7,12.5,48.4,10.4,48.4z"/>
			<path id="path393" class="st2" d="M21.7,49.9l-6.1,6.1l3,3l0,0h3v3l0,0h3v3l1.1,1.1c0.3,0.3,0.6,0.5,1.1,0.5h3.9
				c0.9,0,1.5-0.6,1.5-1.5v-3.9c0-0.5-0.2-0.8-0.5-1.1L21.7,49.9z"/>
		</g>
		<path id="Remarque" class="st2" d="M33.2,97.7l-7.6-7.6c1.1-1.8,1.7-3.8,1.7-6c0-6.4-5.2-11.7-11.7-11.7
			c-6.4,0-11.7,5.2-11.7,11.7s5.2,11.7,11.7,11.7c2.2,0,4.3-0.7,6-1.7l7.6,7.6c0.5,0.5,1.4,0.5,1.9,0l1.9-1.9
			C33.7,99.1,33.7,98.2,33.2,97.7z M15.7,91.8c-4.3,0-7.8-3.5-7.8-7.8s3.5-7.8,7.8-7.8s7.8,3.5,7.8,7.8S20,91.8,15.7,91.8z"/>
		<path id="Texte_légal" class="st2" d="M17.7,112.4c1.2,0,2.1-1,2.1-2.1c0-1.3-1-2.3-2.3-2.3c-1.2,0-2.1,1-2.1,2.1
			C15.4,111.4,16.4,112.4,17.7,112.4z M33.6,125.5h-0.6l-4.3-8.4c0.6-0.1,1.2-0.3,1.8-0.5c0.8-0.4,1-1.5,0.4-2.1l0,0
			c-0.4-0.4-1-0.5-1.5-0.3c-0.5,0.2-1.2,0.4-1.8,0.4c-1.9,0-2.8-2.2-9.8-2.2c-7,0-7.9,2.2-9.8,2.2c-0.7,0-1.3-0.2-1.8-0.4
			c-0.5-0.2-1.1-0.1-1.5,0.3l0,0c-0.6,0.6-0.4,1.7,0.4,2.1c0.5,0.3,1.2,0.5,1.8,0.5l-4.3,8.4H1.7c-0.3,0-0.5,0.2-0.4,0.5
			c0.4,2.2,3.1,3.9,6.5,3.9c3.4,0,6.2-1.7,6.5-3.9c0-0.3-0.2-0.5-0.4-0.5h-0.6l-4.3-8.4c2.8-0.2,4.3-1.7,6.5-1.7v16.6
			c-1.2,0-2.2,1-2.2,2.2h-2.4c-1,0-1.9,1-1.9,2.2h17.5c0-1.2-1-2.2-2.4-2.2H22c0-1.2-1-2.2-2.2-2.2v-16.6c2.2,0,3.7,1.4,6.5,1.7
			l-4.3,8.4h-0.6c-0.3,0-0.5,0.2-0.4,0.5c0.4,2.2,3.1,3.9,6.5,3.9c3.4,0,6.2-1.7,6.5-3.9C34,125.7,33.8,125.5,33.6,125.5z
			 M11.1,125.5H4.5l3.3-6.2L11.1,125.5z M24.2,125.5l3.3-6.2l3.3,6.2H24.2z"/>
		<g id="Rappel">
			<g id="Group" transform="translate(-720.000000, 0.000000)">
				<path id="Rectangle_143" class="st2" d="M726,161.3h5.8v1.9H726V161.3z M729.9,143.7h17.5c1.1,0,1.9,0.9,1.9,2V169
					c0,1.1-0.9,2-1.9,2h-17.5c-1.1,0-1.9-0.9-1.9-2v-3.9h3.9c1.1,0,1.9-0.9,1.9-1.9v-2c0-1.1-0.9-1.9-1.9-1.9H728v-3.9h3.9
					c1.1,0,1.9-0.9,1.9-1.9v-2c0-1.1-0.9-1.9-1.9-1.9H728v-3.9C728,144.6,728.8,143.7,729.9,143.7z M726,151.5h5.8v1.9H726V151.5z"
					/>
			</g>
		</g>
		<g id="Conseil">
			<g id="g401">
				<path id="path-1" class="st2" d="M30.7,217.1c0.7,0,1.3,0.6,1.3,1.3v20.7c0,0.7-0.6,1.3-1.3,1.3H4.8c-0.7,0-1.3-0.6-1.3-1.3
					v-20.7c0-0.7,0.6-1.3,1.3-1.3h3.9v1.3l-3.9,0.1v20.7h25.9v-20.7h-3.9v-1.3H30.7z M21.6,217.1h-1.3v1.3h1.3V217.1z M15.2,217.1
					h-1.3v1.3h1.3V217.1z M10.3,223.6c-0.2,0-0.3,0.1-0.3,0.3v0.8c0,0.1,0.1,0.3,0.3,0.3h15c0.2,0,0.3-0.1,0.3-0.3v-0.8
					c0-0.1-0.1-0.3-0.3-0.3H10.3z M10.3,228.8c-0.2,0-0.3,0.1-0.3,0.3v0.8c0,0.1,0.1,0.3,0.3,0.3h15c0.2,0,0.3-0.1,0.3-0.3v-0.8
					c0-0.1-0.1-0.3-0.3-0.3H10.3z M10.3,234c-0.2,0-0.3,0.1-0.3,0.3v0.8c0,0.1,0.1,0.3,0.3,0.3h15c0.2,0,0.3-0.1,0.3-0.3v-0.8
					c0-0.1-0.1-0.3-0.3-0.3H10.3z M11.3,219.7c0.7,0,1.3-1.2,1.3-2.6c0-1.4-0.6-2.6-1.3-2.6s-1.3,1.2-1.3,2.6
					C10,218.6,10.6,219.7,11.3,219.7z M17.8,219.7c0.7,0,1.3-1.2,1.3-2.6c0-1.4-0.6-2.6-1.3-2.6s-1.3,1.2-1.3,2.6
					C16.5,218.6,17,219.7,17.8,219.7z M24.2,219.7c0.7,0,1.3-1.2,1.3-2.6c0-1.4-0.6-2.6-1.3-2.6s-1.3,1.2-1.3,2.6
					C22.9,218.6,23.5,219.7,24.2,219.7z"/>
			</g>
			<g id="g404">
				<path id="path-1_1_" class="st2" d="M30.7,217.1c0.7,0,1.3,0.6,1.3,1.3v20.7c0,0.7-0.6,1.3-1.3,1.3H4.8c-0.7,0-1.3-0.6-1.3-1.3
					v-20.7c0-0.7,0.6-1.3,1.3-1.3h3.9v1.3l-3.9,0.1v20.7h25.9v-20.7h-3.9v-1.3H30.7z M21.6,217.1h-1.3v1.3h1.3V217.1z M15.2,217.1
					h-1.3v1.3h1.3V217.1z M10.3,223.6c-0.2,0-0.3,0.1-0.3,0.3v0.8c0,0.1,0.1,0.3,0.3,0.3h15c0.2,0,0.3-0.1,0.3-0.3v-0.8
					c0-0.1-0.1-0.3-0.3-0.3H10.3z M10.3,228.8c-0.2,0-0.3,0.1-0.3,0.3v0.8c0,0.1,0.1,0.3,0.3,0.3h15c0.2,0,0.3-0.1,0.3-0.3v-0.8
					c0-0.1-0.1-0.3-0.3-0.3H10.3z M10.3,234c-0.2,0-0.3,0.1-0.3,0.3v0.8c0,0.1,0.1,0.3,0.3,0.3h15c0.2,0,0.3-0.1,0.3-0.3v-0.8
					c0-0.1-0.1-0.3-0.3-0.3H10.3z M11.3,219.7c0.7,0,1.3-1.2,1.3-2.6c0-1.4-0.6-2.6-1.3-2.6s-1.3,1.2-1.3,2.6
					C10,218.6,10.6,219.7,11.3,219.7z M17.8,219.7c0.7,0,1.3-1.2,1.3-2.6c0-1.4-0.6-2.6-1.3-2.6s-1.3,1.2-1.3,2.6
					C16.5,218.6,17,219.7,17.8,219.7z M24.2,219.7c0.7,0,1.3-1.2,1.3-2.6c0-1.4-0.6-2.6-1.3-2.6s-1.3,1.2-1.3,2.6
					C22.9,218.6,23.5,219.7,24.2,219.7z"/>
			</g>
		</g>
		<g id="Complément">
			<polygon id="polygon408" class="st2" points="25.5,249.7 11.7,249.7 5.9,254.9 5.9,275.2 19.7,275.2 19.7,273.4 7.9,273.4 
				7.9,256.9 13.9,256.9 13.9,251.5 23.4,251.5 23.4,257.2 25.5,257.2 			"/>
			<polygon id="polygon410" class="st2" points="22.6,265.6 22.6,259.9 27,259.9 27,265.6 33,265.6 33,269.7 27,269.7 27,275.3 
				22.6,275.3 22.6,269.7 16.6,269.7 16.6,265.6 			"/>
		</g>
		<g id="Fondamental">
			<path id="path413" class="st3" d="M19.2,281.8c-6,0-10.8,4.8-10.8,10.8c0,4,3.6,8.1,4.9,11.8c2,5.5,1.7,8.8,5.8,8.8
				c4.2,0,3.9-3.3,5.8-8.7c1.3-3.7,4.9-7.9,4.9-11.8C30,286.6,25.2,281.8,19.2,281.8z M21.8,308.5l-4.9,0.6
				c-0.2-0.5-0.4-1.1-0.6-1.9c0,0,0,0,0,0l6.1-0.8c-0.1,0.3-0.2,0.6-0.3,0.9C22,307.7,21.9,308.1,21.8,308.5z M16,306.2
				c-0.2-0.6-0.4-1.2-0.6-1.9H23c-0.1,0.4-0.2,0.7-0.3,1L16,306.2z M19.2,311.2c-1,0-1.4-0.1-2-1.2l4.2-0.5
				C20.8,311.1,20.4,311.2,19.2,311.2z M23.8,302.4h-9.1c-0.5-1.1-1.1-2.1-1.7-3.2c-1.3-2.3-2.6-4.7-2.6-6.6c0-4.9,4-8.8,8.8-8.8
				s8.8,4,8.8,8.8c0,2-1.3,4.4-2.6,6.7C24.9,300.3,24.3,301.3,23.8,302.4z"/>
			<path id="path415" class="st3" d="M19.2,286.7c-3.2,0-5.9,2.6-5.9,5.9c0,0.3,0.2,0.5,0.5,0.5c0.3,0,0.5-0.2,0.5-0.5
				c0-2.7,2.2-4.9,4.9-4.9c0.3,0,0.5-0.2,0.5-0.5S19.5,286.7,19.2,286.7z"/>
		</g>
		<g id="Simulation">
			<path id="path418" class="st4" d="M21.1,325c1.4,0,2.6-1.2,2.6-2.6c0-1.4-1.2-2.6-2.6-2.6s-2.6,1.2-2.6,2.6
				C18.5,323.8,19.6,325,21.1,325z"/>
			<path id="path420" class="st4" d="M6.5,337.4c1.4,0,2.6-1.2,2.6-2.6c0-1.4-1.2-2.6-2.6-2.6c-1.4,0-2.6,1.2-2.6,2.6
				C3.9,336.2,5.1,337.4,6.5,337.4z"/>
			<path id="path422" class="st4" d="M25.4,339.3c1.4,0,2.6-1.2,2.6-2.6c0-1.4-1.2-2.6-2.6-2.6c-1.4,0-2.6,1.2-2.6,2.6
				C22.8,338.2,24,339.3,25.4,339.3z"/>
			<path id="path424" class="st4" d="M18.8,348.2c1.4,0,2.6-1.2,2.6-2.6c0-1.4-1.2-2.6-2.6-2.6c-1.4,0-2.6,1.2-2.6,2.6
				C16.2,347,17.4,348.2,18.8,348.2z"/>
			<path id="path426" class="st4" d="M17.4,336.1c1.7,0,3.1-1.4,3.1-3.1c0-1.7-1.4-3.1-3.1-3.1s-3.1,1.4-3.1,3.1
				C14.2,334.7,15.6,336.1,17.4,336.1z"/>
			<line id="line428" class="st5" x1="20.6" y1="324.3" x2="17.6" y2="332.8"/>
			<line id="line430" class="st6" x1="25.6" y1="336.9" x2="17.5" y2="332.9"/>
			<line id="line432" class="st7" x1="18.3" y1="344.2" x2="17.8" y2="333"/>
			<line id="line434" class="st5" x1="8.7" y1="334.7" x2="17.5" y2="332.7"/>
		</g>
		<g id="Exemple">
			<g id="g437">
				<path id="path439" class="st8" d="M20.4,385.5c0,1.1-0.9,2-2,2s-2-0.9-2-2c0-1.1,0.9-2,2-2S20.4,384.4,20.4,385.5z"/>
				<path id="path441" class="st8" d="M18.5,381.5c-1.3,0-2.6-0.5-3.5-1.5c-0.9-1.1-1.5-2.4-1.5-3.7s0.5-2.6,1.5-3.4l6.7-6.7
					c0.8-0.8,1.2-1.8,1.2-2.8c0-1.1-0.4-2.1-1.2-2.8c-1.6-1.6-4.1-1.6-5.7,0c-0.8,0.8-1.2,1.8-1.2,2.8h-4c0-2.1,0.8-4.1,2.3-5.7
					c3-3,8.3-3,11.3,0c1.5,1.5,2.3,3.5,2.3,5.7c0,2.1-0.8,4.1-2.3,5.7l-6.7,6.5c-0.4,0.4-0.4,1,0,1.4c0.4,0.4,1,0.4,1.4,0
					c0.3-0.3,0.3-0.6,0.3-0.7h4c0,1.3-0.5,2.6-1.5,3.7C21.1,381,19.8,381.5,18.5,381.5L18.5,381.5z"/>
			</g>
		</g>
		<g id="background">
			<rect id="rect444" x="3.2" y="391.5" class="st9" width="30" height="30"/>
		</g>
		<g id="paragraph" transform="matrix(1.16773,0,0,0.95206239,-2.1228102,21.989934)">
			<path id="path447" inkscape:connector-curvature="0" class="st2" d="M23.9,403.9c0-0.2,0-1.2-0.7-2.5c-0.7-1.2-2.1-2.6-4.5-3.1
				c-1.4-0.4-1.9-0.9-2.1-1.3c-0.1-0.2-0.2-0.4-0.2-0.5c0,0,0-0.1,0-0.1c0.1-1.2,0.4-1.3,0.8-1.6c0.2-0.1,0.5-0.2,0.8-0.2
				c0.1,0,0.2,0,0.2,0c0,0,0,0,0,0c1.2,0.1,1.3,0.4,1.6,0.8c0.1,0.2,0.2,0.5,0.2,0.8c0,0.1,0,0.2,0,0.3c0,0,0,0,0,0l0.6,0h3.1
				c0-0.2,0-1.3-0.7-2.7c-0.6-1.4-2.4-3-5-2.9c-0.2,0-1.3,0-2.7,0.7c-1.4,0.6-3,2.4-2.9,5c0,0.2,0,1.2,0.7,2.5
				c0.2,0.4,0.5,0.7,0.8,1.1c-0.4,0.4-0.7,0.8-0.9,1.2c-0.7,1.4-0.7,2.6-0.7,2.7c0,0.2,0,1.2,0.7,2.5c0.7,1.2,2.1,2.6,4.5,3.1
				c1.4,0.4,1.9,0.9,2.1,1.3c0.1,0.2,0.2,0.4,0.2,0.5c0,0,0,0.1,0,0.1c-0.1,1.2-0.4,1.3-0.8,1.6c-0.2,0.1-0.5,0.2-0.8,0.2
				c-0.1,0-0.2,0-0.3,0c0,0,0,0,0,0c-1.2-0.1-1.3-0.4-1.6-0.8c-0.1-0.2-0.2-0.5-0.2-0.8c0-0.1,0-0.2,0-0.2c0,0,0,0,0,0v0l-0.6,0
				h-3.1c0,0.2,0,1.3,0.7,2.7c0.6,1.4,2.3,2.9,4.8,2.9c0.1,0,0.1,0,0.2,0c0.2,0,1.3,0,2.7-0.7c1.4-0.6,3-2.4,2.9-5
				c0-0.2,0-1.2-0.7-2.5c-0.2-0.4-0.5-0.7-0.8-1.1c0.4-0.4,0.7-0.8,0.9-1.2C23.9,405.2,23.9,404,23.9,403.9L23.9,403.9z M16.6,404.5
				c-0.1-0.2-0.2-0.4-0.2-0.5c0,0,0-0.1,0-0.1c0-0.2,0.1-0.7,0.3-1.1c0.3-0.4,0.4-0.6,1.3-0.7c1.2,0.4,1.6,0.9,1.9,1.3
				c0.1,0.2,0.2,0.4,0.2,0.5c0,0,0,0.1,0,0.1c0,0.2-0.1,0.7-0.3,1.1c-0.3,0.4-0.4,0.6-1.3,0.7C17.3,405.4,16.9,404.8,16.6,404.5
				L16.6,404.5z"/>
		</g>
	</g>
</g>
</svg>
